{
  "navigationBarTitleText": "修改密码",
  "navigationBarTextStyle":"white",
  "navigationBarBackgroundColor":"#f32b15",
  "usingComponents": {
    "i-button": "../../../static/iview/button/index"
  }
}
